[gd_scene load_steps=33 format=2]

[ext_resource path="res://Script/Main Menu.gd" type="Script" id=1]
[ext_resource path="res://Assets/Character/basic/basic_run_08.png" type="Texture" id=2]
[ext_resource path="res://Assets/Character/basic/basic_run_05.png" type="Texture" id=3]
[ext_resource path="res://Assets/Character/basic/basic_run_07.png" type="Texture" id=4]
[ext_resource path="res://Assets/Character/basic/basic_run_01.png" type="Texture" id=5]
[ext_resource path="res://Assets/Character/basic/basic_run_04.png" type="Texture" id=6]
[ext_resource path="res://Assets/Character/basic/basic_run_02.png" type="Texture" id=7]
[ext_resource path="res://Assets/Character/basic/basic_run_03.png" type="Texture" id=8]
[ext_resource path="res://Assets/Character/basic/basic_run_06.png" type="Texture" id=9]
[ext_resource path="res://Assets/Tileset.png" type="Texture" id=10]
[ext_resource path="res://Assets/Character/FrameEnemy.tres" type="SpriteFrames" id=11]
[ext_resource path="res://Assets/Music/8. The Old Castle.wav" type="AudioStream" id=12]

[sub_resource type="SpriteFrames" id=1]
animations = [ {
"frames": [ ExtResource( 5 ), ExtResource( 7 ), ExtResource( 8 ), ExtResource( 6 ), ExtResource( 3 ), ExtResource( 9 ), ExtResource( 4 ), ExtResource( 2 ) ],
"loop": true,
"name": "default",
"speed": 5.0
} ]

[sub_resource type="OccluderPolygon2D" id=2]
polygon = PoolVector2Array( 8, 8, 4, 8, 4, 0, 8, 0 )

[sub_resource type="OccluderPolygon2D" id=3]
polygon = PoolVector2Array( 8, 8, 4, 8, 4, 0, 8, 0 )

[sub_resource type="OccluderPolygon2D" id=4]
polygon = PoolVector2Array( 8, 4, 0, 4, 0, 0, 8, 0 )

[sub_resource type="OccluderPolygon2D" id=5]
polygon = PoolVector2Array( 4, 8, 0, 8, 0, 0, 4, 0 )

[sub_resource type="OccluderPolygon2D" id=6]
polygon = PoolVector2Array( 4, 8, 0, 8, 0, 0, 4, 0 )

[sub_resource type="OccluderPolygon2D" id=7]
polygon = PoolVector2Array( 8, 8, 4, 8, 4, 0, 8, 0 )

[sub_resource type="OccluderPolygon2D" id=8]
polygon = PoolVector2Array( 8, 8, 4, 8, 4, 0, 8, 0 )

[sub_resource type="OccluderPolygon2D" id=9]
polygon = PoolVector2Array( 8, 4, 4, 4, 4, 0, 8, 0 )

[sub_resource type="OccluderPolygon2D" id=10]
polygon = PoolVector2Array( 4, 8, 0, 8, 0, 0, 4, 0 )

[sub_resource type="OccluderPolygon2D" id=11]
polygon = PoolVector2Array( 4, 8, 0, 8, 0, 0, 4, 0 )

[sub_resource type="OccluderPolygon2D" id=12]
polygon = PoolVector2Array( 4, 4, 0, 4, 0, 0, 4, 0 )

[sub_resource type="OccluderPolygon2D" id=13]
polygon = PoolVector2Array( 8, 4, 0, 4, 0, 0, 8, 0 )

[sub_resource type="OccluderPolygon2D" id=14]
polygon = PoolVector2Array( 0, 0, 0, 0, 0, 8, 4, 8, 4, 4, 8, 4, 8, 0 )

[sub_resource type="OccluderPolygon2D" id=15]
polygon = PoolVector2Array( 8, 4, 0, 4, 0, 0, 8, 0 )

[sub_resource type="OccluderPolygon2D" id=16]
polygon = PoolVector2Array( 8, 4, 0, 4, 0, 0, 8, 0 )

[sub_resource type="OccluderPolygon2D" id=17]
polygon = PoolVector2Array( 0, 0, 0, 0, 0, 4, 4, 4, 4, 8, 8, 8, 8, 0 )

[sub_resource type="OccluderPolygon2D" id=18]
polygon = PoolVector2Array( 8, 4, 0, 4, 0, 0, 8, 0 )

[sub_resource type="ConvexPolygonShape2D" id=19]
points = PoolVector2Array( 4, 0, 0, 0, 0, 0, 4, 0 )

[sub_resource type="TileSet" id=20]
0/name = "Lantai"
0/texture = ExtResource( 10 )
0/tex_offset = Vector2( 0, 0 )
0/modulate = Color( 1, 1, 1, 1 )
0/region = Rect2( 0, 24, 40, 32 )
0/tile_mode = 2
0/autotile/icon_coordinate = Vector2( 0, 0 )
0/autotile/tile_size = Vector2( 8, 8 )
0/autotile/spacing = 0
0/autotile/occluder_map = [  ]
0/autotile/navpoly_map = [  ]
0/autotile/priority_map = [  ]
0/autotile/z_index_map = [  ]
0/occluder_offset = Vector2( 0, 0 )
0/navigation_offset = Vector2( 0, 0 )
0/shape_offset = Vector2( 0, 0 )
0/shape_transform = Transform2D( 1, 0, 0, 1, 0, 0 )
0/shape_one_way = false
0/shape_one_way_margin = 0.0
0/shapes = [  ]
0/z_index = 0
1/name = "Dinding"
1/texture = ExtResource( 10 )
1/tex_offset = Vector2( 0, 0 )
1/modulate = Color( 1, 1, 1, 1 )
1/region = Rect2( 0, 0, 48, 24 )
1/tile_mode = 2
1/autotile/icon_coordinate = Vector2( 0, 0 )
1/autotile/tile_size = Vector2( 8, 8 )
1/autotile/spacing = 0
1/autotile/occluder_map = [ Vector2( 0, 1 ), SubResource( 2 ), Vector2( 0, 2 ), SubResource( 3 ), Vector2( 1, 0 ), SubResource( 4 ), Vector2( 1, 1 ), SubResource( 5 ), Vector2( 1, 2 ), SubResource( 6 ), Vector2( 2, 0 ), SubResource( 7 ), Vector2( 2, 1 ), SubResource( 8 ), Vector2( 2, 2 ), SubResource( 9 ), Vector2( 3, 0 ), SubResource( 10 ), Vector2( 3, 1 ), SubResource( 11 ), Vector2( 3, 2 ), SubResource( 12 ), Vector2( 4, 0 ), SubResource( 13 ), Vector2( 4, 1 ), SubResource( 14 ), Vector2( 4, 2 ), SubResource( 15 ), Vector2( 5, 0 ), SubResource( 16 ), Vector2( 5, 1 ), SubResource( 17 ), Vector2( 5, 2 ), SubResource( 18 ) ]
1/autotile/navpoly_map = [  ]
1/autotile/priority_map = [  ]
1/autotile/z_index_map = [  ]
1/occluder_offset = Vector2( 0, 0 )
1/navigation_offset = Vector2( 0, 0 )
1/shape_offset = Vector2( 0, 0 )
1/shape_transform = Transform2D( 1, 0, 0, 1, 0, 0 )
1/shape = SubResource( 19 )
1/shape_one_way = false
1/shape_one_way_margin = 1.0
1/shapes = [ {
"autotile_coord": Vector2( 2, 5 ),
"one_way": false,
"one_way_margin": 1.0,
"shape": SubResource( 19 ),
"shape_transform": Transform2D( 1, 0, 0, 1, 0, 0 )
}, {
"autotile_coord": Vector2( 5, 3 ),
"one_way": false,
"one_way_margin": 1.0,
"shape": SubResource( 19 ),
"shape_transform": Transform2D( 1, 0, 0, 1, 0, 0 )
}, {
"autotile_coord": Vector2( 4, 1 ),
"one_way": false,
"one_way_margin": 1.0,
"shape": SubResource( 19 ),
"shape_transform": Transform2D( 1, 0, 0, 1, 0, 0 )
}, {
"autotile_coord": Vector2( 5, 1 ),
"one_way": false,
"one_way_margin": 1.0,
"shape": SubResource( 19 ),
"shape_transform": Transform2D( 1, 0, 0, 1, 0, 0 )
}, {
"autotile_coord": Vector2( 5, 2 ),
"one_way": false,
"one_way_margin": 1.0,
"shape": SubResource( 19 ),
"shape_transform": Transform2D( 1, 0, 0, 1, 0, 0 )
}, {
"autotile_coord": Vector2( 4, 2 ),
"one_way": false,
"one_way_margin": 1.0,
"shape": SubResource( 19 ),
"shape_transform": Transform2D( 1, 0, 0, 1, 0, 0 )
}, {
"autotile_coord": Vector2( 4, 0 ),
"one_way": false,
"one_way_margin": 1.0,
"shape": SubResource( 19 ),
"shape_transform": Transform2D( 1, 0, 0, 1, 0, 0 )
}, {
"autotile_coord": Vector2( 5, 0 ),
"one_way": false,
"one_way_margin": 1.0,
"shape": SubResource( 19 ),
"shape_transform": Transform2D( 1, 0, 0, 1, 0, 0 )
}, {
"autotile_coord": Vector2( 3, 0 ),
"one_way": false,
"one_way_margin": 1.0,
"shape": SubResource( 19 ),
"shape_transform": Transform2D( 1, 0, 0, 1, 0, 0 )
}, {
"autotile_coord": Vector2( 2, 0 ),
"one_way": false,
"one_way_margin": 1.0,
"shape": SubResource( 19 ),
"shape_transform": Transform2D( 1, 0, 0, 1, 0, 0 )
}, {
"autotile_coord": Vector2( 3, 1 ),
"one_way": false,
"one_way_margin": 1.0,
"shape": SubResource( 19 ),
"shape_transform": Transform2D( 1, 0, 0, 1, 0, 0 )
}, {
"autotile_coord": Vector2( 2, 1 ),
"one_way": false,
"one_way_margin": 1.0,
"shape": SubResource( 19 ),
"shape_transform": Transform2D( 1, 0, 0, 1, 0, 0 )
}, {
"autotile_coord": Vector2( 2, 2 ),
"one_way": false,
"one_way_margin": 1.0,
"shape": SubResource( 19 ),
"shape_transform": Transform2D( 1, 0, 0, 1, 0, 0 )
}, {
"autotile_coord": Vector2( 3, 2 ),
"one_way": false,
"one_way_margin": 1.0,
"shape": SubResource( 19 ),
"shape_transform": Transform2D( 1, 0, 0, 1, 0, 0 )
}, {
"autotile_coord": Vector2( 1, 0 ),
"one_way": false,
"one_way_margin": 1.0,
"shape": SubResource( 19 ),
"shape_transform": Transform2D( 1, 0, 0, 1, 0, 0 )
}, {
"autotile_coord": Vector2( 1, 1 ),
"one_way": false,
"one_way_margin": 1.0,
"shape": SubResource( 19 ),
"shape_transform": Transform2D( 1, 0, 0, 1, 0, 0 )
}, {
"autotile_coord": Vector2( 0, 1 ),
"one_way": false,
"one_way_margin": 1.0,
"shape": SubResource( 19 ),
"shape_transform": Transform2D( 1, 0, 0, 1, 0, 0 )
}, {
"autotile_coord": Vector2( 1, 2 ),
"one_way": false,
"one_way_margin": 1.0,
"shape": SubResource( 19 ),
"shape_transform": Transform2D( 1, 0, 0, 1, 0, 0 )
}, {
"autotile_coord": Vector2( 0, 2 ),
"one_way": false,
"one_way_margin": 1.0,
"shape": SubResource( 19 ),
"shape_transform": Transform2D( 1, 0, 0, 1, 0, 0 )
} ]
1/z_index = 0

[node name="Menu" type="Control"]
anchor_right = 1.0
anchor_bottom = 1.0
margin_left = 0.73056
margin_right = 0.73056
script = ExtResource( 1 )
__meta__ = {
"_edit_use_anchors_": false
}

[node name="Label" type="Label" parent="."]
margin_left = 51.1213
margin_top = 74.4853
margin_right = 197.121
margin_bottom = 91.4853
text = "ESCAPE THE DUNGEON"
__meta__ = {
"_edit_use_anchors_": false
}

[node name="StartBtn" type="Button" parent="."]
margin_left = 82.0282
margin_top = 137.949
margin_right = 165.028
margin_bottom = 157.949
text = "Start Game"
__meta__ = {
"_edit_use_anchors_": false
}

[node name="QuitBtn" type="Button" parent="."]
margin_left = 81.3443
margin_top = 167.336
margin_right = 164.345
margin_bottom = 187.336
text = "Quit"
__meta__ = {
"_edit_use_anchors_": false
}

[node name="AnimatedSprite" type="AnimatedSprite" parent="."]
position = Vector2( 298.546, 116.346 )
scale = Vector2( 2, 2 )
frames = SubResource( 1 )
frame = 2
playing = true

[node name="Ground2" type="TileMap" parent="."]
scale = Vector2( 2, 2 )
z_index = -2
tile_set = SubResource( 20 )
cell_size = Vector2( 8, 8 )
format = 1
tile_data = PoolIntArray( 0, 1, 65540, 1, 1, 1, 2, 1, 1, 3, 1, 1, 4, 1, 1, 5, 1, 1, 6, 1, 1, 7, 1, 1, 8, 1, 1, 9, 1, 1, 10, 1, 1, 11, 1, 1, 12, 1, 1, 13, 1, 1, 14, 1, 65541, 15, 1, 1, 16, 1, 1, 17, 1, 1, 18, 1, 1, 19, 1, 1, 20, 1, 1, 21, 1, 1, 22, 1, 1, 23, 1, 1, 24, 1, 1, 25, 1, 1, 26, 1, 1, 27, 1, 1, 28, 1, 1, 29, 1, 65541, 65536, 1, 65539, 65537, 0, 131074, 65538, 0, 131074, 65539, 0, 131074, 65540, 0, 131074, 65541, 0, 131074, 65542, 0, 131074, 65543, 0, 131074, 65544, 0, 131074, 65550, 1, 65538, 65560, 0, 131074, 65561, 0, 131074, 65562, 0, 196612, 65563, 0, 196612, 65564, 0, 131075, 65565, 1, 65538, 131072, 1, 65539, 131073, 0, 131074, 131074, 0, 131074, 131075, 0, 131074, 131076, 0, 131074, 131077, 0, 131074, 131078, 0, 196608, 131079, 0, 196608, 131080, 0, 196608, 131081, 0, 196608, 131082, 0, 131074, 131083, 0, 131074, 131084, 0, 131074, 131085, 0, 131074, 131086, 1, 65538, 131087, 0, 131074, 131088, 0, 131074, 131089, 0, 196608, 131090, 0, 131074, 131091, 0, 196612, 131092, 0, 131075, 131093, 0, 131075, 131094, 0, 131074, 131095, 0, 131074, 131096, 0, 131074, 131097, 0, 196612, 131098, 0, 131075, 131099, 0, 131075, 131100, 0, 131075, 131101, 1, 65538, 196608, 1, 65539, 196609, 0, 131074, 196610, 0, 131074, 196611, 0, 131074, 196612, 0, 131074, 196613, 0, 131074, 196614, 0, 131074, 196615, 0, 131074, 196616, 0, 131074, 196617, 0, 131074, 196618, 0, 131074, 196619, 0, 131074, 196620, 0, 131074, 196621, 0, 131074, 196622, 1, 65538, 196623, 0, 131074, 196624, 0, 131074, 196625, 0, 131075, 196626, 0, 131075, 196627, 0, 131075, 196628, 0, 131075, 196629, 0, 131075, 196630, 0, 131075, 196631, 0, 131075, 196632, 0, 131075, 196633, 0, 131075, 196634, 0, 131074, 196635, 0, 131075, 196636, 0, 131074, 196637, 1, 65538, 262144, 1, 65539, 262145, 0, 131074, 262146, 0, 131074, 262147, 0, 131074, 262148, 0, 131074, 262149, 0, 131074, 262150, 0, 131074, 262151, 0, 131074, 262152, 0, 131074, 262153, 0, 131074, 262154, 0, 131074, 262155, 0, 131074, 262156, 0, 131074, 262157, 0, 131074, 262158, 1, 131076, 262159, 1, 1, 262160, 1, 1, 262161, 1, 1, 262162, 1, 1, 262163, 1, 1, 262164, 1, 1, 262165, 1, 1, 262166, 0, 196612, 262167, 0, 131075, 262168, 0, 131075, 262169, 0, 131075, 262170, 0, 131075, 262171, 0, 131074, 262172, 0, 131075, 262173, 1, 65538, 327680, 1, 65539, 327681, 0, 131075, 327682, 0, 131075, 327683, 0, 0, 327684, 0, 0, 327685, 0, 0, 327686, 0, 131074, 327687, 0, 131074, 327688, 0, 131074, 327689, 0, 131074, 327690, 0, 131074, 327691, 0, 131074, 327692, 0, 131074, 327693, 0, 131074, 327694, 0, 131074, 327695, 0, 131074, 327696, 0, 131075, 327697, 0, 131075, 327698, 0, 196612, 327699, 0, 131075, 327700, 0, 131075, 327701, 0, 196612, 327702, 0, 131075, 327703, 0, 131075, 327704, 0, 131075, 327705, 0, 131075, 327706, 0, 131075, 327707, 0, 131075, 327708, 0, 131075, 327709, 1, 65538, 393216, 1, 65539, 393217, 0, 131075, 393218, 0, 131075, 393219, 0, 131075, 393220, 0, 131075, 393221, 0, 131075, 393222, 0, 131075, 393223, 0, 131075, 393224, 0, 0, 393225, 0, 131074, 393226, 0, 131074, 393227, 0, 131074, 393228, 0, 131074, 393229, 0, 131074, 393230, 0, 131074, 393231, 0, 131074, 393232, 0, 131075, 393233, 0, 131075, 393234, 0, 131074, 393235, 0, 131075, 393236, 0, 131075, 393237, 0, 131075, 393238, 0, 131074, 393239, 0, 131075, 393240, 0, 131075, 393241, 0, 131075, 393242, 0, 131075, 393243, 0, 131075, 393244, 0, 131075, 393245, 1, 65538, 458752, 1, 65539, 458754, 0, 131075, 458755, 0, 131074, 458756, 0, 131074, 458757, 0, 131074, 458758, 0, 131074, 458759, 0, 131074, 458760, 0, 131074, 458761, 0, 131074, 458762, 0, 131074, 458763, 0, 131074, 458764, 0, 131074, 458765, 0, 131074, 458766, 0, 131074, 458767, 0, 131074, 458768, 0, 131075, 458769, 0, 131074, 458770, 0, 131075, 458771, 0, 131075, 458772, 0, 131075, 458773, 0, 131074, 458774, 0, 131075, 458775, 0, 131074, 458776, 0, 131075, 458777, 0, 131075, 458778, 0, 131074, 458779, 0, 131075, 458780, 0, 131075, 458781, 1, 65538, 524288, 1, 65539, 524290, 0, 131075, 524291, 0, 131074, 524292, 0, 131074, 524293, 0, 131074, 524294, 0, 131074, 524295, 0, 131074, 524296, 0, 131074, 524297, 0, 131074, 524298, 0, 131074, 524299, 0, 131074, 524300, 0, 131074, 524301, 0, 131074, 524302, 0, 131074, 524303, 0, 131074, 524304, 0, 131075, 524305, 0, 131075, 524306, 0, 131074, 524307, 0, 131075, 524308, 0, 131074, 524309, 0, 131075, 524310, 0, 131074, 524311, 0, 131075, 524312, 0, 131075, 524313, 0, 131075, 524314, 0, 131075, 524315, 0, 131075, 524316, 0, 196612, 524317, 1, 65538, 589824, 1, 65539, 589826, 0, 131075, 589827, 0, 131074, 589828, 0, 131074, 589829, 0, 131074, 589830, 0, 131074, 589831, 0, 131074, 589832, 0, 131074, 589833, 0, 131074, 589834, 0, 131074, 589835, 0, 131074, 589838, 0, 131074, 589840, 0, 131075, 589841, 0, 131074, 589842, 0, 131075, 589843, 0, 131075, 589850, 0, 131075, 589851, 0, 131075, 589852, 0, 131075, 589853, 1, 65538, 655360, 1, 65539, 655362, 0, 131074, 655363, 0, 131074, 655364, 0, 131074, 655365, 0, 131074, 655366, 0, 131074, 655367, 0, 131074, 655368, 0, 131074, 655369, 0, 131074, 655370, 0, 131074, 655371, 0, 131074, 655372, 0, 131074, 655374, 0, 131074, 655375, 1, 65540, 655377, 0, 131074, 655378, 0, 131075, 655379, 0, 131075, 655380, 1, 1, 655381, 1, 1, 655382, 1, 1, 655383, 1, 1, 655384, 1, 1, 655385, 1, 65541, 655386, 0, 131075, 655387, 0, 196612, 655388, 0, 131075, 655389, 1, 65538, 720896, 1, 65539, 720898, 0, 131074, 720899, 0, 131074, 720900, 0, 131074, 720901, 0, 131074, 720902, 0, 131074, 720903, 0, 131074, 720904, 0, 131074, 720905, 0, 131074, 720906, 0, 131074, 720907, 0, 131075, 720908, 0, 131075, 720910, 0, 131075, 720911, 1, 65539, 720912, 0, 131075, 720913, 0, 131075, 720914, 0, 131075, 720915, 0, 131075, 720919, 0, 131075, 720920, 0, 131075, 720921, 1, 65538, 720922, 0, 131075, 720923, 0, 131075, 720924, 0, 131075, 720925, 1, 65538, 786432, 1, 65539, 786433, 0, 131074, 786434, 0, 131074, 786435, 0, 131074, 786436, 0, 131074, 786437, 0, 131074, 786438, 0, 131074, 786439, 0, 131074, 786440, 0, 131075, 786441, 0, 131075, 786442, 0, 131075, 786443, 0, 131074, 786444, 0, 131074, 786446, 0, 131074, 786447, 1, 65539, 786448, 0, 196610, 786449, 0, 131075, 786450, 0, 131075, 786451, 0, 131075, 786452, 0, 131075, 786453, 0, 196612, 786454, 0, 196612, 786455, 0, 131075, 786456, 0, 131074, 786457, 1, 65538, 786458, 1, 0, 786459, 1, 0, 786460, 1, 0, 786461, 1, 65538, 851968, 1, 65539, 851969, 0, 0, 851970, 0, 131075, 851971, 0, 131075, 851972, 0, 131074, 851973, 0, 131074, 851974, 0, 131074, 851975, 0, 131074, 851976, 0, 131075, 851983, 1, 65539, 851993, 1, 65538, 851994, 1, 0, 851995, 1, 0, 851996, 1, 0, 851997, 1, 65538, 917504, 1, 131076, 917505, 1, 1, 917506, 1, 1, 917507, 1, 1, 917508, 1, 1, 917509, 1, 1, 917510, 1, 1, 917511, 1, 1, 917512, 1, 1, 917513, 1, 1, 917514, 1, 1, 917515, 1, 1, 917516, 1, 1, 917517, 1, 1, 917518, 1, 1, 917519, 1, 131076, 917520, 1, 1, 917521, 1, 1, 917522, 1, 1, 917523, 1, 1, 917524, 1, 1, 917525, 1, 1, 917526, 1, 1, 917527, 1, 1, 917528, 1, 1, 917529, 1, 131077, 917530, 1, 0, 917531, 1, 0, 917532, 1, 0, 917533, 1, 131077 )

[node name="Ground" type="TileMap" parent="."]
scale = Vector2( 2, 2 )
z_index = -3
tile_set = SubResource( 20 )
cell_size = Vector2( 8, 8 )
format = 1
tile_data = PoolIntArray( 0, 0, 0, 1, 0, 0, 2, 0, 0, 3, 0, 0, 4, 0, 0, 5, 0, 0, 6, 0, 0, 7, 0, 0, 8, 0, 131074, 9, 0, 131074, 10, 0, 131074, 11, 0, 131074, 12, 0, 131074, 13, 0, 131074, 14, 0, 131074, 15, 1, 65541, 16, 0, 131074, 17, 0, 131074, 18, 0, 131074, 19, 0, 131074, 20, 0, 131074, 21, 0, 131074, 22, 0, 131074, 23, 0, 131074, 24, 0, 131074, 25, 0, 131074, 26, 0, 131074, 27, 0, 131074, 28, 0, 131074, 29, 0, 131074, 65536, 0, 131074, 65537, 0, 131074, 65538, 0, 131074, 65539, 0, 131074, 65540, 0, 131074, 65541, 0, 131074, 65542, 0, 131074, 65543, 0, 131074, 65544, 0, 131074, 65545, 0, 131074, 65546, 0, 131074, 65547, 0, 131074, 65548, 0, 131074, 65549, 0, 131074, 65550, 0, 131074, 65551, 0, 131074, 65552, 0, 131074, 65553, 0, 131074, 65554, 0, 131074, 65555, 0, 131074, 65556, 0, 131074, 65557, 0, 131074, 65558, 0, 131074, 65559, 0, 131074, 65560, 0, 131074, 65561, 0, 131074, 65562, 0, 196612, 65563, 0, 196612, 65564, 0, 131075, 65565, 0, 131074, 131072, 0, 131074, 131073, 0, 131074, 131074, 0, 131074, 131075, 0, 131074, 131076, 0, 131074, 131077, 0, 131074, 131078, 0, 196608, 131079, 0, 196608, 131080, 0, 196608, 131081, 0, 196608, 131082, 0, 131074, 131083, 0, 131074, 131084, 0, 131074, 131085, 0, 131074, 131086, 0, 131074, 131087, 0, 131074, 131088, 0, 131074, 131089, 0, 196608, 131090, 0, 131074, 131091, 0, 196612, 131092, 0, 131075, 131093, 0, 131075, 131094, 0, 131074, 131095, 0, 131074, 131096, 0, 131074, 131097, 0, 196612, 131098, 0, 131075, 131099, 0, 131075, 131100, 0, 131075, 131101, 0, 131074, 196608, 0, 131074, 196609, 0, 131074, 196610, 0, 131074, 196611, 0, 131074, 196612, 0, 131074, 196613, 0, 131074, 196614, 0, 131074, 196615, 0, 131074, 196616, 0, 131074, 196617, 0, 131074, 196618, 0, 131074, 196619, 0, 131074, 196620, 0, 131074, 196621, 0, 131074, 196622, 0, 131074, 196623, 0, 131074, 196624, 0, 131074, 196625, 0, 131075, 196626, 0, 131075, 196627, 0, 131075, 196628, 0, 131075, 196629, 0, 131075, 196630, 0, 131075, 196631, 0, 131075, 196632, 0, 131075, 196633, 0, 131075, 196634, 0, 131074, 196635, 0, 131075, 196636, 0, 131074, 196637, 0, 131074, 262144, 0, 131074, 262145, 0, 131074, 262146, 0, 131074, 262147, 0, 131074, 262148, 0, 131074, 262149, 0, 131074, 262150, 0, 131074, 262151, 0, 131074, 262152, 0, 131074, 262153, 0, 131074, 262154, 0, 131074, 262155, 0, 131074, 262156, 0, 131074, 262157, 0, 131074, 262158, 0, 131074, 262159, 0, 131074, 262160, 0, 131074, 262161, 0, 131075, 262162, 0, 131074, 262163, 0, 131075, 262164, 0, 131075, 262165, 0, 131075, 262166, 0, 196612, 262167, 0, 131075, 262168, 0, 131075, 262169, 0, 131075, 262170, 0, 131075, 262171, 0, 131074, 262172, 0, 131075, 262173, 0, 131075, 327680, 0, 131074, 327681, 0, 131075, 327682, 0, 131075, 327683, 0, 0, 327684, 0, 0, 327685, 0, 0, 327686, 0, 131074, 327687, 0, 131074, 327688, 0, 131074, 327689, 0, 131074, 327690, 0, 131074, 327691, 0, 131074, 327692, 0, 131074, 327693, 0, 131074, 327694, 0, 131074, 327695, 0, 131074, 327696, 0, 131075, 327697, 0, 131075, 327698, 0, 196612, 327699, 0, 131075, 327700, 0, 131075, 327701, 0, 196612, 327702, 0, 131075, 327703, 0, 131075, 327704, 0, 131075, 327705, 0, 131075, 327706, 0, 131075, 327707, 0, 131075, 327708, 0, 131075, 327709, 0, 131075, 393216, 0, 131074, 393217, 0, 131075, 393218, 0, 131075, 393219, 0, 131075, 393220, 0, 131075, 393221, 0, 131075, 393222, 0, 131075, 393223, 0, 131075, 393224, 0, 0, 393225, 0, 131074, 393226, 0, 131074, 393227, 0, 131074, 393228, 0, 131074, 393229, 0, 131074, 393230, 0, 131074, 393231, 0, 131074, 393232, 0, 131075, 393233, 0, 131075, 393234, 0, 131074, 393235, 0, 131075, 393236, 0, 131075, 393237, 0, 131075, 393238, 0, 131074, 393239, 0, 131075, 393240, 0, 131075, 393241, 0, 131075, 393242, 0, 131075, 393243, 0, 131075, 393244, 0, 131075, 393245, 0, 131074, 458752, 0, 131074, 458753, 0, 131075, 458754, 0, 131075, 458755, 0, 131074, 458756, 0, 131074, 458757, 0, 131074, 458758, 0, 131074, 458759, 0, 131074, 458760, 0, 131074, 458761, 0, 131074, 458762, 0, 131074, 458763, 0, 131074, 458764, 0, 131074, 458765, 0, 131074, 458766, 0, 131074, 458767, 0, 131074, 458768, 0, 131075, 458769, 0, 131074, 458770, 0, 131075, 458771, 0, 131075, 458772, 0, 131075, 458773, 0, 131074, 458774, 0, 131075, 458775, 0, 131074, 458776, 0, 131075, 458777, 0, 131075, 458778, 0, 131074, 458779, 0, 131075, 458780, 0, 131075, 458781, 0, 131075, 524288, 0, 131074, 524289, 0, 131075, 524290, 0, 131075, 524291, 0, 131074, 524292, 0, 131074, 524293, 0, 131074, 524294, 0, 131074, 524295, 0, 131074, 524296, 0, 131074, 524297, 0, 131074, 524298, 0, 131074, 524299, 0, 131074, 524300, 0, 131074, 524301, 0, 131074, 524302, 0, 131074, 524303, 0, 131074, 524304, 0, 131075, 524305, 0, 131075, 524306, 0, 131074, 524307, 0, 131075, 524308, 0, 131074, 524309, 0, 131075, 524310, 0, 131074, 524311, 0, 131075, 524312, 0, 131075, 524313, 0, 131075, 524314, 0, 131075, 524315, 0, 131075, 524316, 0, 196612, 524317, 0, 131075, 589824, 0, 131074, 589825, 0, 131075, 589826, 0, 131075, 589827, 0, 131074, 589828, 0, 131074, 589829, 0, 131074, 589830, 0, 131074, 589831, 0, 131074, 589832, 0, 131074, 589833, 0, 131074, 589834, 0, 131074, 589835, 0, 131074, 589836, 0, 131074, 589837, 0, 131074, 589838, 0, 131074, 589839, 0, 131074, 589840, 0, 131075, 589841, 0, 131074, 589842, 0, 131075, 589843, 0, 131075, 589844, 0, 131074, 589845, 0, 131075, 589846, 0, 131075, 589847, 0, 131075, 589848, 0, 131075, 589849, 0, 131075, 589850, 0, 131075, 589851, 0, 131075, 589852, 0, 131075, 589853, 0, 131075, 655360, 0, 131074, 655361, 0, 131075, 655362, 0, 131074, 655363, 0, 131074, 655364, 0, 131074, 655365, 0, 131074, 655366, 0, 131074, 655367, 0, 131074, 655368, 0, 131074, 655369, 0, 131074, 655370, 0, 131074, 655371, 0, 131074, 655372, 0, 131074, 655373, 0, 131074, 655374, 0, 131074, 655375, 0, 131075, 655376, 0, 131074, 655377, 0, 131074, 655378, 0, 131075, 655379, 0, 131075, 655380, 0, 131075, 655381, 0, 131075, 655382, 0, 131075, 655383, 0, 131075, 655384, 0, 131075, 655385, 0, 131075, 655386, 0, 131075, 655387, 0, 196612, 655388, 0, 131075, 655389, 0, 131075, 720896, 0, 131074, 720897, 0, 131075, 720898, 0, 131074, 720899, 0, 131074, 720900, 0, 131074, 720901, 0, 131074, 720902, 0, 131074, 720903, 0, 131074, 720904, 0, 131074, 720905, 0, 131074, 720906, 0, 131074, 720907, 0, 131075, 720908, 0, 131075, 720909, 0, 131075, 720910, 0, 131075, 720911, 0, 131075, 720912, 0, 131075, 720913, 0, 131075, 720914, 0, 131075, 720915, 0, 131075, 720916, 0, 131075, 720917, 0, 131075, 720918, 0, 131075, 720919, 0, 131075, 720920, 0, 131075, 720921, 0, 131075, 720922, 0, 131075, 720923, 0, 131075, 720924, 0, 131075, 720925, 0, 131075, 786432, 0, 131074, 786433, 0, 131074, 786434, 0, 131074, 786435, 0, 131074, 786436, 0, 131074, 786437, 0, 131074, 786438, 0, 131074, 786439, 0, 131074, 786440, 0, 131075, 786441, 0, 131075, 786442, 0, 131075, 786443, 0, 131074, 786444, 0, 131074, 786445, 0, 131075, 786446, 0, 131074, 786447, 0, 131074, 786448, 0, 196610, 786449, 0, 131075, 786450, 0, 131075, 786451, 0, 131075, 786452, 0, 131075, 786453, 0, 196612, 786454, 0, 196612, 786455, 0, 131075, 786456, 0, 131074, 786457, 0, 131075, 786458, 0, 131075, 786459, 0, 196612, 786460, 0, 131075, 786461, 1, 0, 851968, 0, 131074, 851969, 0, 0, 851970, 0, 131075, 851971, 0, 131075, 851972, 0, 131074, 851973, 0, 131074, 851974, 0, 131074, 851975, 0, 131074, 851976, 0, 131075, 851977, 0, 131075, 851978, 0, 131075, 851979, 0, 131075, 851980, 0, 131075, 851981, 0, 131075, 851982, 0, 131075, 851983, 0, 131075, 851984, 0, 131075, 851985, 0, 131075, 851986, 0, 131075, 851987, 0, 131075, 851988, 0, 196612, 851989, 0, 196612, 851990, 0, 131075, 851991, 0, 131075, 851992, 0, 131075, 851993, 0, 131075, 851994, 0, 196612, 851995, 0, 131075, 851996, 0, 131075, 851997, 1, 0, 917504, 0, 131074, 917505, 0, 0, 917506, 0, 131075, 917507, 0, 131075, 917508, 0, 131075, 917509, 0, 131075, 917510, 0, 131075, 917511, 0, 131075, 917512, 0, 131075, 917513, 0, 131075, 917514, 0, 131075, 917515, 0, 131075, 917516, 0, 131075, 917517, 0, 131075, 917518, 0, 131075, 917519, 0, 131075, 917520, 0, 131075, 917521, 0, 131075, 917522, 0, 131075, 917523, 0, 131075, 917524, 0, 131075, 917525, 0, 131075, 917526, 0, 196612, 917527, 0, 131075, 917528, 0, 131075, 917529, 0, 196612, 917530, 0, 131075, 917531, 0, 131075, 917532, 0, 131075, 917533, 1, 0 )

[node name="AnimatedSprite2" type="AnimatedSprite" parent="."]
position = Vector2( 266.576, 39.0659 )
scale = Vector2( 2, 2 )
frames = ExtResource( 11 )
animation = "Idle"
frame = 3
playing = true

[node name="AnimatedSprite3" type="AnimatedSprite" parent="."]
position = Vector2( 381.516, 198.201 )
scale = Vector2( 2, 2 )
frames = ExtResource( 11 )
animation = "Idle"
playing = true
flip_h = true

[node name="AudioStreamPlayer" type="AudioStreamPlayer" parent="."]
stream = ExtResource( 12 )
autoplay = true

[connection signal="pressed" from="StartBtn" to="." method="_on_StartBtn_pressed"]
[connection signal="pressed" from="QuitBtn" to="." method="_on_QuitBtn_pressed"]
